%YAML 1.1
%TAG !u! tag:unity3d.com,2011:
--- !u!114 &11400000
MonoBehaviour:
  m_ObjectHideFlags: 0
  m_CorrespondingSourceObject: {fileID: 0}
  m_PrefabInstance: {fileID: 0}
  m_PrefabAsset: {fileID: 0}
  m_GameObject: {fileID: 0}
  m_Enabled: 1
  m_EditorHideFlags: 0
  m_Script: {fileID: 11500000, guid: 40bad426ec6290e41b345b4331a82045, type: 3}
  m_Name: SteeredCohesionBehavior
  m_EditorClassIdentifier: 
  filter: {fileID: 11400000, guid: 8bf7422164de36b47ab25b0347fcdb3e, type: 2}
  agentSmoothTime: 0.5
